{
  "data": [
    {
      "id": 0,
      "picture": "https://picsum.photos/seed/id/200",
      "username": "dolore",
      "firstName": "Andrea",
      "lastName": "Massey",
      "lastName2": "nostrud",
      "email": "andreamassey@zillanet.com",
      "phone": "+34 (943) 553-2360",
      "nif": "60949794F"
    },
    {
      "id": 1,
      "picture": "https://picsum.photos/seed/consequat/200",
      "username": "sunt",
      "firstName": "Shannon",
      "lastName": "Vaughan",
      "lastName2": "pariatur",
      "email": "shannonvaughan@zillanet.com",
      "phone": "+34 (958) 508-3595",
      "nif": "88945422C"
    },
    {
      "id": 2,
      "picture": "https://picsum.photos/seed/dolor/200",
      "username": "in",
      "firstName": "Sara",
      "lastName": "Goodwin",
      "lastName2": "ipsum",
      "email": "saragoodwin@zillanet.com",
      "phone": "+34 (989) 572-2312",
      "nif": "80705867E"
    },
    {
      "id": 3,
      "picture": "https://picsum.photos/seed/dolor/200",
      "username": "cupidatat",
      "firstName": "Isabel",
      "lastName": "Peters",
      "lastName2": "amet",
      "email": "isabelpeters@zillanet.com",
      "phone": "+34 (832) 586-2204",
      "nif": "80792242E"
    },
    {
      "id": 4,
      "picture": "https://picsum.photos/seed/nisi/200",
      "username": "et",
      "firstName": "Lynn",
      "lastName": "Byers",
      "lastName2": "dolore",
      "email": "lynnbyers@zillanet.com",
      "phone": "+34 (866) 542-3731",
      "nif": "64797947C"
    },
    {
      "id": 5,
      "picture": "https://picsum.photos/seed/voluptate/200",
      "username": "commodo",
      "firstName": "Preston",
      "lastName": "Douglas",
      "lastName2": "Lorem",
      "email": "prestondouglas@zillanet.com",
      "phone": "+34 (827) 477-2999",
      "nif": "88239218C"
    },
    {
      "id": 6,
      "picture": "https://picsum.photos/seed/culpa/200",
      "username": "est",
      "firstName": "Angelina",
      "lastName": "Workman",
      "lastName2": "elit",
      "email": "angelinaworkman@zillanet.com",
      "phone": "+34 (973) 465-2818",
      "nif": "87148993F"
    },
    {
      "id": 7,
      "picture": "https://picsum.photos/seed/nulla/200",
      "username": "sint",
      "firstName": "Cherry",
      "lastName": "Floyd",
      "lastName2": "aliqua",
      "email": "cherryfloyd@zillanet.com",
      "phone": "+34 (991) 561-3594",
      "nif": "73591244D"
    },
    {
      "id": 8,
      "picture": "https://picsum.photos/seed/cillum/200",
      "username": "aliqua",
      "firstName": "Watkins",
      "lastName": "Cochran",
      "lastName2": "mollit",
      "email": "watkinscochran@zillanet.com",
      "phone": "+34 (840) 574-2613",
      "nif": "72344119D"
    },
    {
      "id": 9,
      "picture": "https://picsum.photos/seed/officia/200",
      "username": "deserunt",
      "firstName": "Sybil",
      "lastName": "Parrish",
      "lastName2": "ut",
      "email": "sybilparrish@zillanet.com",
      "phone": "+34 (890) 571-2035",
      "nif": "84693035E"
    },
    {
      "id": 10,
      "picture": "https://picsum.photos/seed/culpa/200",
      "username": "sit",
      "firstName": "Elsa",
      "lastName": "Gutierrez",
      "lastName2": "ipsum",
      "email": "elsagutierrez@zillanet.com",
      "phone": "+34 (941) 487-2696",
      "nif": "64782604F"
    },
    {
      "id": 11,
      "picture": "https://picsum.photos/seed/dolore/200",
      "username": "deserunt",
      "firstName": "Tiffany",
      "lastName": "Moreno",
      "lastName2": "aliqua",
      "email": "tiffanymoreno@zillanet.com",
      "phone": "+34 (875) 559-3643",
      "nif": "70188718A"
    },
    {
      "id": 12,
      "picture": "https://picsum.photos/seed/eu/200",
      "username": "adipisicing",
      "firstName": "Cortez",
      "lastName": "Love",
      "lastName2": "officia",
      "email": "cortezlove@zillanet.com",
      "phone": "+34 (886) 507-2306",
      "nif": "64118183F"
    },
    {
      "id": 13,
      "picture": "https://picsum.photos/seed/sit/200",
      "username": "qui",
      "firstName": "Miller",
      "lastName": "Patrick",
      "lastName2": "est",
      "email": "millerpatrick@zillanet.com",
      "phone": "+34 (903) 451-2531",
      "nif": "71148649F"
    },
    {
      "id": 14,
      "picture": "https://picsum.photos/seed/aliquip/200",
      "username": "officia",
      "firstName": "Brady",
      "lastName": "Butler",
      "lastName2": "magna",
      "email": "bradybutler@zillanet.com",
      "phone": "+34 (942) 559-2492",
      "nif": "87081789D"
    },
    {
      "id": 15,
      "picture": "https://picsum.photos/seed/sint/200",
      "username": "eu",
      "firstName": "Dudley",
      "lastName": "Day",
      "lastName2": "do",
      "email": "dudleyday@zillanet.com",
      "phone": "+34 (914) 485-2597",
      "nif": "83371477B"
    },
    {
      "id": 16,
      "picture": "https://picsum.photos/seed/elit/200",
      "username": "adipisicing",
      "firstName": "Pearl",
      "lastName": "Johns",
      "lastName2": "veniam",
      "email": "pearljohns@zillanet.com",
      "phone": "+34 (933) 518-2461",
      "nif": "66001244C"
    },
    {
      "id": 17,
      "picture": "https://picsum.photos/seed/non/200",
      "username": "ullamco",
      "firstName": "Mcdowell",
      "lastName": "Mcneil",
      "lastName2": "quis",
      "email": "mcdowellmcneil@zillanet.com",
      "phone": "+34 (960) 414-2537",
      "nif": "61485126E"
    },
    {
      "id": 18,
      "picture": "https://picsum.photos/seed/qui/200",
      "username": "ex",
      "firstName": "Lee",
      "lastName": "Cooley",
      "lastName2": "nisi",
      "email": "leecooley@zillanet.com",
      "phone": "+34 (912) 473-2402",
      "nif": "76490063F"
    },
    {
      "id": 19,
      "picture": "https://picsum.photos/seed/laboris/200",
      "username": "do",
      "firstName": "Gould",
      "lastName": "Crosby",
      "lastName2": "pariatur",
      "email": "gouldcrosby@zillanet.com",
      "phone": "+34 (814) 404-2770",
      "nif": "85624822E"
    },
    {
      "id": 20,
      "picture": "https://picsum.photos/seed/cillum/200",
      "username": "mollit",
      "firstName": "Debbie",
      "lastName": "York",
      "lastName2": "elit",
      "email": "debbieyork@zillanet.com",
      "phone": "+34 (923) 545-3125",
      "nif": "67280266D"
    },
    {
      "id": 21,
      "picture": "https://picsum.photos/seed/quis/200",
      "username": "elit",
      "firstName": "Florence",
      "lastName": "Flores",
      "lastName2": "qui",
      "email": "florenceflores@zillanet.com",
      "phone": "+34 (913) 461-2943",
      "nif": "66657099B"
    },
    {
      "id": 22,
      "picture": "https://picsum.photos/seed/aliquip/200",
      "username": "duis",
      "firstName": "Tricia",
      "lastName": "Vazquez",
      "lastName2": "veniam",
      "email": "triciavazquez@zillanet.com",
      "phone": "+34 (953) 531-2087",
      "nif": "74531045B"
    },
    {
      "id": 23,
      "picture": "https://picsum.photos/seed/aute/200",
      "username": "eiusmod",
      "firstName": "Lorena",
      "lastName": "Williams",
      "lastName2": "culpa",
      "email": "lorenawilliams@zillanet.com",
      "phone": "+34 (930) 438-2254",
      "nif": "86512419B"
    },
    {
      "id": 24,
      "picture": "https://picsum.photos/seed/aliqua/200",
      "username": "pariatur",
      "firstName": "Richard",
      "lastName": "Holmes",
      "lastName2": "laboris",
      "email": "richardholmes@zillanet.com",
      "phone": "+34 (850) 593-3530",
      "nif": "61069973C"
    },
    {
      "id": 25,
      "picture": "https://picsum.photos/seed/anim/200",
      "username": "aute",
      "firstName": "Shaw",
      "lastName": "Carroll",
      "lastName2": "mollit",
      "email": "shawcarroll@zillanet.com",
      "phone": "+34 (956) 551-2662",
      "nif": "62563145D"
    },
    {
      "id": 26,
      "picture": "https://picsum.photos/seed/et/200",
      "username": "aliqua",
      "firstName": "Beach",
      "lastName": "Joseph",
      "lastName2": "mollit",
      "email": "beachjoseph@zillanet.com",
      "phone": "+34 (879) 517-2363",
      "nif": "72561048A"
    },
    {
      "id": 27,
      "picture": "https://picsum.photos/seed/Lorem/200",
      "username": "aute",
      "firstName": "Prince",
      "lastName": "Wright",
      "lastName2": "laborum",
      "email": "princewright@zillanet.com",
      "phone": "+34 (900) 593-3761",
      "nif": "89305983F"
    },
    {
      "id": 28,
      "picture": "https://picsum.photos/seed/adipisicing/200",
      "username": "ex",
      "firstName": "Barr",
      "lastName": "Wise",
      "lastName2": "non",
      "email": "barrwise@zillanet.com",
      "phone": "+34 (901) 521-3669",
      "nif": "67779028A"
    },
    {
      "id": 29,
      "picture": "https://picsum.photos/seed/nostrud/200",
      "username": "laboris",
      "firstName": "Cooke",
      "lastName": "Rojas",
      "lastName2": "proident",
      "email": "cookerojas@zillanet.com",
      "phone": "+34 (935) 486-2216",
      "nif": "62004848B"
    },
    {
      "id": 30,
      "picture": "https://picsum.photos/seed/pariatur/200",
      "username": "sint",
      "firstName": "Manuela",
      "lastName": "Meadows",
      "lastName2": "quis",
      "email": "manuelameadows@zillanet.com",
      "phone": "+34 (826) 429-3610",
      "nif": "79417238B"
    },
    {
      "id": 31,
      "picture": "https://picsum.photos/seed/aute/200",
      "username": "duis",
      "firstName": "Brennan",
      "lastName": "Randolph",
      "lastName2": "consequat",
      "email": "brennanrandolph@zillanet.com",
      "phone": "+34 (852) 579-3002",
      "nif": "75438097C"
    },
    {
      "id": 32,
      "picture": "https://picsum.photos/seed/reprehenderit/200",
      "username": "tempor",
      "firstName": "Susanne",
      "lastName": "Shaffer",
      "lastName2": "veniam",
      "email": "susanneshaffer@zillanet.com",
      "phone": "+34 (890) 504-3092",
      "nif": "64062088A"
    },
    {
      "id": 33,
      "picture": "https://picsum.photos/seed/cillum/200",
      "username": "non",
      "firstName": "Brewer",
      "lastName": "Pierce",
      "lastName2": "nostrud",
      "email": "brewerpierce@zillanet.com",
      "phone": "+34 (860) 517-3558",
      "nif": "85285114A"
    },
    {
      "id": 34,
      "picture": "https://picsum.photos/seed/qui/200",
      "username": "consectetur",
      "firstName": "Vazquez",
      "lastName": "Strickland",
      "lastName2": "consectetur",
      "email": "vazquezstrickland@zillanet.com",
      "phone": "+34 (830) 404-3695",
      "nif": "75317764C"
    },
    {
      "id": 35,
      "picture": "https://picsum.photos/seed/exercitation/200",
      "username": "elit",
      "firstName": "Gentry",
      "lastName": "Conley",
      "lastName2": "id",
      "email": "gentryconley@zillanet.com",
      "phone": "+34 (839) 574-3753",
      "nif": "74887226B"
    },
    {
      "id": 36,
      "picture": "https://picsum.photos/seed/culpa/200",
      "username": "irure",
      "firstName": "Elliott",
      "lastName": "Glass",
      "lastName2": "veniam",
      "email": "elliottglass@zillanet.com",
      "phone": "+34 (822) 507-3080",
      "nif": "85276067B"
    },
    {
      "id": 37,
      "picture": "https://picsum.photos/seed/consequat/200",
      "username": "adipisicing",
      "firstName": "Graham",
      "lastName": "Sampson",
      "lastName2": "est",
      "email": "grahamsampson@zillanet.com",
      "phone": "+34 (858) 535-3231",
      "nif": "68313554B"
    },
    {
      "id": 38,
      "picture": "https://picsum.photos/seed/elit/200",
      "username": "eu",
      "firstName": "Nixon",
      "lastName": "Holcomb",
      "lastName2": "deserunt",
      "email": "nixonholcomb@zillanet.com",
      "phone": "+34 (929) 513-2538",
      "nif": "84672013C"
    },
    {
      "id": 39,
      "picture": "https://picsum.photos/seed/exercitation/200",
      "username": "officia",
      "firstName": "Avis",
      "lastName": "Fischer",
      "lastName2": "et",
      "email": "avisfischer@zillanet.com",
      "phone": "+34 (957) 465-2112",
      "nif": "76174399C"
    },
    {
      "id": 40,
      "picture": "https://picsum.photos/seed/nostrud/200",
      "username": "esse",
      "firstName": "Lauri",
      "lastName": "Jackson",
      "lastName2": "in",
      "email": "laurijackson@zillanet.com",
      "phone": "+34 (949) 541-2686",
      "nif": "74558718B"
    },
    {
      "id": 41,
      "picture": "https://picsum.photos/seed/Lorem/200",
      "username": "fugiat",
      "firstName": "Kendra",
      "lastName": "Larsen",
      "lastName2": "labore",
      "email": "kendralarsen@zillanet.com",
      "phone": "+34 (973) 507-3190",
      "nif": "66101182D"
    }
  ],
  "pagination": {
    "offset": 10,
    "limit": 10,
    "pageNumber": 0,
    "totalPages": 3,
    "totalElements": 120,
    "links": {
      "self": "http://localhost:3000/users?limit=10&offset=10",
      "first": "http://localhost:3000/users?limit=10&offset=0",
      "last": "http://localhost:3000/users?limit=10&offset=120",
      "prev": "http://localhost:3000/users?limit=10&offset=10",
      "next": "http://localhost:3000/users?limit=10&offset=10"
    }
  }
}
